{
    "code": 200,
    "meta": {
        "pagination": {
            "total": 60,
            "pages": 3,
            "page": 1,
            "limit": 3
        }
    },
    "data": [
        {
            "id": 117182,
            "user_id": 6826802,
            "title": "Ducimus caveo somnus delinquo adficio abbas caelestis tertius.",
            "body": "Audacia thymbra abeo. Correptius toties trans. Venia alii at. Optio spargo toties. Commodo amet vorago. Autem facere non. Vel quaerat recusandae. Non rerum tergum. Basium alius repellat. Et esse viduata."
        },
        {
            "id": 117181,
            "user_id": 6826802,
            "title": "Deleniti versus validus autus amaritudo tamen copiose attollo.",
            "body": "Deprecator quis creo. Alveus cum ait. Amplexus aufero caecus. Aspernatur succedo solus. Succurro absconditus voro. Certo autem delego. Sollers comedo tutis. Vindico valetudo terminatio. Abbas paens veritatis. Capio et nisi. Ullam pax sint. Veritatis compello attollo. Cohaero vicissitudo arbitro. Vox caries et. Volubilis quibusdam harum. Unde claudeo qui. Ancilla vita amita."
        },
        {
            "id": 117105,
            "user_id": 6825902,
            "title": "Cupiditas pauci absorbeo patior nobis vestrum sub.",
            "body": "Curiositas tremo credo. Adicio timor vapulus. Illo somnus adulescens. Deserunt corporis abduco. Ait adimpleo venio. Vesica comptus bellum. Ustulo absorbeo absens. Vestigium cattus qui. Alii tabula vita. Ter consectetur neque. Viduata admiratio textor."
        }
    ]
}